…
An important element of the graphic summarizing the data is that it addresses a principle question for the reader, and for you as the research synthesis jedi, the data viz should assesses the quality and fit of the data for the objective of the synthesis. Consequently, counts and data viz are not necessary for every W, but it is recommended that many be explored and some included in the appendices of the paper as a means to provide a topological summary of the dataset.

library(tidyverse)
#Niche synthesis example####
#where
data <- read_csv("data/niche.data.csv")
data

## # A tibble: 29 x 18
##       ID                                                         topic
##    <int>                                                         <chr>
##  1     2                                        Niche characterization
##  2     3                                        Niche characterization
##  3     5                             Niche partioning and interactions
##  4     9   Niche changes over ontogeny and inter-specific facilitation
##  5    10        Environmental niche: shade and rainfall of four shrubs
##  6    11                            Coexistence in grass-shrub steppes
##  7    15              Niche differentiation/segregation in a shrubland
##  8    16                   Niche partioning in tree-grass interactions
##  9    20    Niche partioning among shrub-annuals and biological crusts
## 10    21 Regeneration niche of six shrubs using one-week-old seedlings
## # ... with 19 more rows, and 16 more variables: `expansion
## #   mechanism` <chr>, niche.concept <chr>, application <chr>,
## #   niche.measurement <chr>, benefactor <chr>, benefactor.life.form <chr>,
## #   benefactor.family <chr>, beneficiary <chr>,
## #   beneficiary.life.form <chr>, beneficiary.family <chr>,
## #   ecosystem.detail <chr>, ecosystem <chr>, lat <dbl>, long <dbl>,
## #   country <chr>, elevation.m <int>
…
