…
A search for research on positive interactions and the niche in deserts.

We will continue with the study of niche within desert ecosystems instance and search matrix. 

library(tidyverse)
library(PRISMAstatement)

#PRISMA####
#use 'prisma' function from PRISMAstatement 
#https://cran.r-project.org/web/packages/PRISMAstatement/vignettes/PRISMA.html
prisma.report <-read_csv("data/prisma.csv")
prisma.report

## # A tibble: 53 x 4
##       ID inclusion category           detailed.reason                     
##    <dbl> <chr>     <chr>              <chr>                               
##  1     1 N         no positive inter… Niche partioning tested in differen…
##  2     2 Y         include            Niche of shrub species with conserv…
##  3     3 Y         include            Niche modelling (sdm) of shrub spec…
##  4     4 N         no niche expansio… Dietary niches of two ungulates eva…
##  5     5 Y         include            Hydrological niche with negative ef…
##  6     6 N         no positive inter… SDMs for a rare cactus with conserv…
##  7     7 N         no positive inter… Phylogenetic niche evaluated for Mo…
##  8     8 N         no positive inter… Niche expansion reported via facili…
##  9     9 Y         include            Facilitation favours a species a ea…
## 10    10 Y         include            Shade conditions determined germina…
## # ... with 43 more rows
…
